"Device-Id","108b25bd-d089-4163-8099-ceb5a17c1392",,,,,,,,,,,,,,,,,,
"TrackerName","Google Ads ACI::RF- RegFocused_3.0 (11282646218)::Salary+ Video (114956989169)::Display",,,,,,,,,,,,,,,,,,,,,,,,,,,,,,,,,,,,,,,,,,,,,,,,,,,,,,,,,,,,,,,,,,,,,,,,,,,,,,,,,,,,,,,,,,,,,,,,,,
"LastAppVersion","4.1.9",,,,,,,,,,,,,,,,,,
"Event Name","Event ID  ","Event date & Time "
"LOAN_REQUIREMENT_EVENT_TOKEN ","a4rb95","2022-02-21T12:01:04Z",,,,,,,,,,,,,,,,,,,,,,,,,,,,,,,,,,,,,,,,,,,,,,,,,,,,,,,,,,,,,,,,,,,,,,,,,,,,,,,,,,,,,,,,,,,,,,,,,
"LISTED_LOAN_EVENT_TOKEN","cs62tl","2022-02-21T13:25:08Z",,,,,,,,,,,,,,,,,,,,,,,,,,,,,,,,,,,,,,,,,,,,,,,,,,,,,,,,,,,,,,,,,,,,,,,,,,,,,,,,,,,,,,,,,,,,,,,,,
"BANK_STATEMENT_EVENT_TOKEN  ","d6fkc8","2022-02-21T13:08:35Z",,,,,,,,,,,,,,,,,,,,,,,,,,,,,,,,,,,,,,,,,,,,,,,,,,,,,,,,,,,,,,,,,,,,,,,,,,,,,,,,,,,,,,,,,,,,,,,,,
"ELIGIBLE_EVENT_TOKEN","d6vjuz","2022-02-20T23:02:42Z",,,,,,,,,,,,,,,,,,,,,,,,,,,,,,,,,,,,,,,,,,,,,,,,,,,,,,,,,,,,,,,,,,,,,,,,,,,,,,,,,,,,,,,,,,,,,,,,,
"PERSONAL_DETAILS_EVENT_TOKEN  ","dypky0","2022-02-20T23:01:45Z",,,,,,,,,,,,,,,,,,,,,,,,,,,,,,,,,,,,,,,,,,,,,,,,,,,,,,,,,,,,,,,,,,,,,,,,,,,,,,,,,,,,,,,,,,,,,,,,,
"SIGN_UP_TOKEN","gnvwv5","2022-02-20T22:58:23Z",,,,,,,,,,,,,,,,,,,,,,,,,,,,,,,,,,,,,,,,,,,,,,,,,,,,,,,,,,,,,,,,,,,,,,,,,,,,,,,,,,,,,,,,,,,,,,,,,
"AUTO_DEBIT_EVENT_TOKEN ","izm72m","2022-02-21T13:10:52Z",,,,,,,,,,,,,,,,,,,,,,,,,,,,,,,,,,,,,,,,,,,,,,,,,,,,,,,,,,,,,,,,,,,,,,,,,,,,,,,,,,,,,,,,,,,,,,,,,
"BANK_DETAILS_EVENT_TOKEN ","ka63bc","2022-02-21T13:08:43Z",,,,,,,,,,,,,,,,,,,,,,,,,,,,,,,,,,,,,,,,,,,,,,,,,,,,,,,,,,,,,,,,,,,,,,,,,,,,,,,,,,,,,,,,,,,,,,,,,
"LIVE_KYC_EVENT_TOKEN","n4fsxu","2022-02-21T12:59:10Z",,,,,,,,,,,,,,,,,,,,,,,,,,,,,,,,,,,,,,,,,,,,,,,,,,,,,,,,,,,,,,,,,,,,,,,,,,,,,,,,,,,,,,,,,,,,,,,,,
"DISBURSED_LOAN_EVENT_TOKEN","om5n31","2022-02-22T10:58:17Z",,,,,,,,,,,,,,,,,,,,,,,,,,,,,,,,,,,,,,,,,,,,,,,,,,,,,,,,,,,,,,,,,,,,,,,,,,,,,,,,,,,,,,,,,,,,,,,,,
"PROCESSING_LOAN_EVENT_TOKEN","pyekiv","2022-02-22T03:35:05Z",,,,,,,,,,,,,,,,,,,,,,,,,,,,,,,,,,,,,,,,,,,,,,,,,,,,,,,,,,,,,,,,,,,,,,,,,,,,,,,,,,,,,,,,,,,,,,,,,
"REGISTRATION_FEES_CONFIRMATION_TOKEN ","r9gg6y","2022-02-21T12:50:40Z",,,,,,,,,,,,,,,,,,,,,,,,,,,,,,,,,,,,,,,,,,,,,,,,,,,,,,,,,,,,,,,,,,,,,,,,,,,,,,,,,,,,,,,,,,,,,,,,,
"RESIDENTIAL_DETAILS_EVENT_TOKEN","tz4fwx","2022-02-21T13:02:31Z",,,,,,,,,,,,,,,,,,,,,,,,,,,,,,,,,,,,,,,,,,,,,,,,,,,,,,,,,,,,,,,,,,,,,,,,,,,,,,,,,,,,,,,,,,,,,,,,,
"LOAN_AGREEMENT_EVENT_TOKEN ","uw8uoe","2022-02-21T13:11:32Z",,,,,,,,,,,,,,,,,,,,,,,,,,,,,,,,,,,,,,,,,,,,,,,,,,,,,,,,,,,,,,,,,,,,,,,,,,,,,,,,,,,,,,,,,,,,,,,,,
"CREDIT_DETAILS_EVENT_TOKEN  ","wr6olb","2022-02-20T23:02:39Z",,,,,,,,,,,,,,,,,,,,,,,,,,,,,,,,,,,,,,,,,,,,,,,,,,,,,,,,,,,,,,,,,,,,,,,,,,,,,,,,,,,,,,,,,,,,,,,,,
"To be taken from Amir shaikh","xt0gg5","2022-02-23T00:41:46Z",,,,,,,,,,,,,,,,,,,,,,,,,,,,,,,,,,,,,,,,,,,,,,,,,,,,,,,,,,,,,,,,,,,,,,,,,,,,,,,,,,,,,,,,,,,,,,,,,
" "," "," "
"Device-Id","2e01985e-c772-4ef2-aad2-dea73e96bb75",,,,,,,,,,,,,,,,,,
"TrackerName","Install Rejected","2022-02-23T00:41:46Z",,,,,,,,,,,,,,,,,,,,,,,,,,,,,,,,,,,,,,,,,,,,,,,,,,,,,,,,,,,,,,,,,,,,,,,,,,,,,,,,,,,,,,,,,,,,,,,,,
"LastAppVersion","4.1.9",,,,,,,,,,,,,,,,,,
"Event Name","Event ID  ","Event date & Time "
"OPEN_LOAN_EVENT_TOKEN","1h1e4z","2022-02-16T06:14:48Z",,,,,,,,,,,,,,,,,,,,,,,,,,,,,,,,,,,,,,,,,,,,,,,,,,,,,,,,,,,,,,,,,,,,,,,,,,,,,,,,,,,,,,,,,,,,,,,,,
"LOAN_REQUIREMENT_EVENT_TOKEN ","a4rb95","2022-02-18T07:00:59Z",,,,,,,,,,,,,,,,,,,,,,,,,,,,,,,,,,,,,,,,,,,,,,,,,,,,,,,,,,,,,,,,,,,,,,,,,,,,,,,,,,,,,,,,,,,,,,,,,
"BANK_STATEMENT_EVENT_TOKEN  ","d6fkc8","2022-02-16T06:19:26Z",,,,,,,,,,,,,,,,,,,,,,,,,,,,,,,,,,,,,,,,,,,,,,,,,,,,,,,,,,,,,,,,,,,,,,,,,,,,,,,,,,,,,,,,,,,,,,,,,
"ELIGIBLE_EVENT_TOKEN","d6vjuz","2022-02-18T07:00:46Z",,,,,,,,,,,,,,,,,,,,,,,,,,,,,,,,,,,,,,,,,,,,,,,,,,,,,,,,,,,,,,,,,,,,,,,,,,,,,,,,,,,,,,,,,,,,,,,,,
"PERSONAL_DETAILS_EVENT_TOKEN  ","dypky0","2022-02-16T06:15:32Z",,,,,,,,,,,,,,,,,,,,,,,,,,,,,,,,,,,,,,,,,,,,,,,,,,,,,,,,,,,,,,,,,,,,,,,,,,,,,,,,,,,,,,,,,,,,,,,,,
"SIGN_UP_TOKEN","gnvwv5","2022-02-16T06:14:26Z",,,,,,,,,,,,,,,,,,,,,,,,,,,,,,,,,,,,,,,,,,,,,,,,,,,,,,,,,,,,,,,,,,,,,,,,,,,,,,,,,,,,,,,,,,,,,,,,,
"AUTO_DEBIT_EVENT_TOKEN ","izm72m","2022-02-16T06:20:24Z",,,,,,,,,,,,,,,,,,,,,,,,,,,,,,,,,,,,,,,,,,,,,,,,,,,,,,,,,,,,,,,,,,,,,,,,,,,,,,,,,,,,,,,,,,,,,,,,,
"BANK_DETAILS_EVENT_TOKEN ","ka63bc","2022-02-16T06:19:47Z",,,,,,,,,,,,,,,,,,,,,,,,,,,,,,,,,,,,,,,,,,,,,,,,,,,,,,,,,,,,,,,,,,,,,,,,,,,,,,,,,,,,,,,,,,,,,,,,,
"SOCIAL_LOGIN_EVENT_TOKEN ","mdrxnp","2022-02-16T06:14:47Z",,,,,,,,,,,,,,,,,,,,,,,,,,,,,,,,,,,,,,,,,,,,,,,,,,,,,,,,,,,,,,,,,,,,,,,,,,,,,,,,,,,,,,,,,,,,,,,,,
"LIVE_KYC_EVENT_TOKEN","n4fsxu","2022-02-16T06:17:36Z",,,,,,,,,,,,,,,,,,,,,,,,,,,,,,,,,,,,,,,,,,,,,,,,,,,,,,,,,,,,,,,,,,,,,,,,,,,,,,,,,,,,,,,,,,,,,,,,,
"REGISTRATION_FEES_CONFIRMATION_TOKEN ","r9gg6y","2022-02-16T06:16:47Z",,,,,,,,,,,,,,,,,,,,,,,,,,,,,,,,,,,,,,,,,,,,,,,,,,,,,,,,,,,,,,,,,,,,,,,,,,,,,,,,,,,,,,,,,,,,,,,,,
"RESIDENTIAL_DETAILS_EVENT_TOKEN","tz4fwx","2022-02-16T06:18:36Z",,,,,,,,,,,,,,,,,,,,,,,,,,,,,,,,,,,,,,,,,,,,,,,,,,,,,,,,,,,,,,,,,,,,,,,,,,,,,,,,,,,,,,,,,,,,,,,,,
"LOAN_AGREEMENT_EVENT_TOKEN ","uw8uoe","2022-02-16T06:20:51Z",,,,,,,,,,,,,,,,,,,,,,,,,,,,,,,,,,,,,,,,,,,,,,,,,,,,,,,,,,,,,,,,,,,,,,,,,,,,,,,,,,,,,,,,,,,,,,,,,
"CREDIT_DETAILS_EVENT_TOKEN  ","wr6olb","2022-02-16T06:15:41Z",,,,,,,,,,,,,,,,,,,,,,,,,,,,,,,,,,,,,,,,,,,,,,,,,,,,,,,,,,,,,,,,,,,,,,,,,,,,,,,,,,,,,,,,,,,,,,,,,
" "," "," "
"Device-Id","Status","Reason",,,,,,,
"d45545ssdds","ADVERTISING ID NOT FOUND","Fail",,,,,,,
" "," "," "
"Device-Id","c861a1fb-80d0-459a-8b2d-42abb6ddbb6a",,,,,,,,,,,,,,,,,,
"TrackerName","Organic","2022-02-16T06:15:41Z",,,,,,,,,,,,,,,,,,,,,,,,,,,,,,,,,,,,,,,,,,,,,,,,,,,,,,,,,,,,,,,,,,,,,,,,,,,,,,,,,,,,,,,,,,,,,,,,,
"LastAppVersion","4.1.0",,,,,,,,,,,,,,,,,,
"Event Name","Event ID  ","Event date & Time "
"OPEN_LOAN_EVENT_TOKEN","1h1e4z","2021-09-30T05:20:39Z",,,,,,,,,,,,,,,,,,,,,,,,,,,,,,,,,,,,,,,,,,,,,,,,,,,,,,,,,,,,,,,,,,,,,,,,,,,,,,,,,,,,,,,,,,,,,,,,,
"LOAN_REQUIREMENT_EVENT_TOKEN ","a4rb95","2021-11-03T05:36:32Z",,,,,,,,,,,,,,,,,,,,,,,,,,,,,,,,,,,,,,,,,,,,,,,,,,,,,,,,,,,,,,,,,,,,,,,,,,,,,,,,,,,,,,,,,,,,,,,,,
"CANCELLED_LOAN_EVENT_TOKEN","b8ebd9","2021-09-30T09:37:27Z",,,,,,,,,,,,,,,,,,,,,,,,,,,,,,,,,,,,,,,,,,,,,,,,,,,,,,,,,,,,,,,,,,,,,,,,,,,,,,,,,,,,,,,,,,,,,,,,,
"LISTED_LOAN_EVENT_TOKEN","cs62tl","2021-10-28T11:28:19Z",,,,,,,,,,,,,,,,,,,,,,,,,,,,,,,,,,,,,,,,,,,,,,,,,,,,,,,,,,,,,,,,,,,,,,,,,,,,,,,,,,,,,,,,,,,,,,,,,
"BANK_STATEMENT_EVENT_TOKEN  ","d6fkc8","2021-09-29T08:21:00Z",,,,,,,,,,,,,,,,,,,,,,,,,,,,,,,,,,,,,,,,,,,,,,,,,,,,,,,,,,,,,,,,,,,,,,,,,,,,,,,,,,,,,,,,,,,,,,,,,
"ELIGIBLE_EVENT_TOKEN","d6vjuz","2021-11-03T05:36:19Z",,,,,,,,,,,,,,,,,,,,,,,,,,,,,,,,,,,,,,,,,,,,,,,,,,,,,,,,,,,,,,,,,,,,,,,,,,,,,,,,,,,,,,,,,,,,,,,,,
"PERSONAL_DETAILS_EVENT_TOKEN  ","dypky0","2021-09-29T10:01:39Z",,,,,,,,,,,,,,,,,,,,,,,,,,,,,,,,,,,,,,,,,,,,,,,,,,,,,,,,,,,,,,,,,,,,,,,,,,,,,,,,,,,,,,,,,,,,,,,,,
"SIGN_UP_TOKEN","gnvwv5","2021-09-29T09:53:38Z",,,,,,,,,,,,,,,,,,,,,,,,,,,,,,,,,,,,,,,,,,,,,,,,,,,,,,,,,,,,,,,,,,,,,,,,,,,,,,,,,,,,,,,,,,,,,,,,,
"AUTO_DEBIT_EVENT_TOKEN ","izm72m","2021-09-29T11:21:30Z",,,,,,,,,,,,,,,,,,,,,,,,,,,,,,,,,,,,,,,,,,,,,,,,,,,,,,,,,,,,,,,,,,,,,,,,,,,,,,,,,,,,,,,,,,,,,,,,,
"BANK_DETAILS_EVENT_TOKEN ","ka63bc","2021-09-29T11:15:25Z",,,,,,,,,,,,,,,,,,,,,,,,,,,,,,,,,,,,,,,,,,,,,,,,,,,,,,,,,,,,,,,,,,,,,,,,,,,,,,,,,,,,,,,,,,,,,,,,,
"SOCIAL_LOGIN_EVENT_TOKEN ","mdrxnp","2021-09-30T05:20:38Z",,,,,,,,,,,,,,,,,,,,,,,,,,,,,,,,,,,,,,,,,,,,,,,,,,,,,,,,,,,,,,,,,,,,,,,,,,,,,,,,,,,,,,,,,,,,,,,,,
"LIVE_KYC_EVENT_TOKEN","n4fsxu","2021-09-29T10:25:26Z",,,,,,,,,,,,,,,,,,,,,,,,,,,,,,,,,,,,,,,,,,,,,,,,,,,,,,,,,,,,,,,,,,,,,,,,,,,,,,,,,,,,,,,,,,,,,,,,,
"PROCESSING_LOAN_EVENT_TOKEN","pyekiv","2021-10-29T06:20:34Z",,,,,,,,,,,,,,,,,,,,,,,,,,,,,,,,,,,,,,,,,,,,,,,,,,,,,,,,,,,,,,,,,,,,,,,,,,,,,,,,,,,,,,,,,,,,,,,,,
"REGISTRATION_FEES_CONFIRMATION_TOKEN ","r9gg6y","2021-09-29T10:08:00Z",,,,,,,,,,,,,,,,,,,,,,,,,,,,,,,,,,,,,,,,,,,,,,,,,,,,,,,,,,,,,,,,,,,,,,,,,,,,,,,,,,,,,,,,,,,,,,,,,
"DECLINED_LOAN_EVENT_TOKEN","sttovk","2021-09-30T03:30:44Z",,,,,,,,,,,,,,,,,,,,,,,,,,,,,,,,,,,,,,,,,,,,,,,,,,,,,,,,,,,,,,,,,,,,,,,,,,,,,,,,,,,,,,,,,,,,,,,,,
"RESIDENTIAL_DETAILS_EVENT_TOKEN","tz4fwx","2021-09-29T10:27:44Z",,,,,,,,,,,,,,,,,,,,,,,,,,,,,,,,,,,,,,,,,,,,,,,,,,,,,,,,,,,,,,,,,,,,,,,,,,,,,,,,,,,,,,,,,,,,,,,,,
"LOAN_AGREEMENT_EVENT_TOKEN ","uw8uoe","2021-09-29T11:22:33Z",,,,,,,,,,,,,,,,,,,,,,,,,,,,,,,,,,,,,,,,,,,,,,,,,,,,,,,,,,,,,,,,,,,,,,,,,,,,,,,,,,,,,,,,,,,,,,,,,
"CREDIT_DETAILS_EVENT_TOKEN  ","wr6olb","2021-09-29T10:02:57Z",,,,,,,,,,,,,,,,,,,,,,,,,,,,,,,,,,,,,,,,,,,,,,,,,,,,,,,,,,,,,,,,,,,,,,,,,,,,,,,,,,,,,,,,,,,,,,,,,
" "," "," "
